{ "__v" : 4,
"_id" : ObjectId( "51b1a2d143511c0c2a000021" ),
"account_code" : "hXZG2sUKCs",
"address" : "alskdj",
"charge" : "7",
"city" : "9203",
"country" : "THAILAND",
"deposit" : 19,
"description_long" : " asdf",
"email" : "bannapot@gmail.com",
"fax" : "t898e98qe98r",
"features" : [ 
{ "_id" : ObjectId( "51b1a2d143511c0c2a000022" ),
"wireless_complimentary" : "0",
"wireless_charges" : "0",
"wireless" : "0",
"lan_complimentary" : "0",
"lan_charges" : "0",
"lan" : "0",
"tennis_courts" : "0",
"steamroom" : "0",
"spa" : "0",
"sauna" : "0",
"private_beach" : "0",
"pool_kids" : "0",
"massage" : "0",
"kids_club" : "0",
"jacuzzi" : "0",
"indoor_pool" : "0",
"gym" : "0",
"golf_course" : "0",
"garden" : "0",
"wifi_in_public_area" : "0",
"tours" : "0",
"smoking_room" : "0",
"shops" : "0",
"salon" : "0",
"safety_deposit_boxes" : "0",
"room_service" : "0",
"restaurant" : "0",
"poolside_bar" : "0",
"pets_allowed" : "0",
"nightclub" : "0",
"meeting_facilities" : "0",
"laundry_service" : "0",
"family_room" : "0",
"executive_floor" : "0",
"elevator" : "0",
"disabled_facilities" : "1",
"concierge" : "0",
"coffee_shop" : "0",
"casino" : "0",
"business_center" : "0",
"bicycle_rental" : "0",
"bar_pub" : "0",
"bodysitting" : "0",
"airport_transfer" : "0",
"room_service_24" : "0" } ],
"hotel_code" : "UI7684",
"hotel_currency" : "THB",
"hotel_name" : "HOdkek",
"hotel_policy" : " asdf",
"hotel_status" : 0,
"image_main" : [],
"images" : [ 
{ "title" : "19005248dKiQDKyo",
"file_name" : "19005248dKiQDKyo",
"path" : "hotels/19005248dKiQDKyo",
"images_hotel_type" : "other",
"_id" : ObjectId( "51b1a30543511c0c2a000023" ) }, 
{ "title" : "567379678eHUT3vDE",
"file_name" : "567379678eHUT3vDE",
"path" : "hotels/567379678eHUT3vDE",
"images_hotel_type" : "other",
"_id" : ObjectId( "51b1a30643511c0c2a000024" ) }, 
{ "title" : "121543795sF9v5pqB",
"file_name" : "121543795sF9v5pqB",
"path" : "hotels/121543795sF9v5pqB",
"images_hotel_type" : "other",
"_id" : ObjectId( "51b1a30743511c0c2a000025" ) }, 
{ "title" : "130716650uwzOgxfb",
"file_name" : "130716650uwzOgxfb",
"path" : "hotels/130716650uwzOgxfb",
"images_hotel_type" : "other",
"_id" : ObjectId( "51b1a30843511c0c2a000026" ) } ],
"latitude" : "7.887995415627319",
"longitude" : "98.36723685264587",
"phone" : "baldksjf029320930",
"state" : "89090932",
"street" : "alskj290",
"tax" : "10",
"website" : "woei",
"zip_code" : "9023092309" }